INDEX VERSION 1.131+E:\Users\Siva\Documents\workspace-sts-3.9.11.RELEASE\.metadata\.plugins\org.eclipse.jdt.core
108690139.index
2479595011.index
281665637.index
1020691873.index
1937549246.index
3909511825.index
2237540907.index
630286516.index
97714863.index
3540721084.index
1352595926.index
2478238542.index
1631869780.index
3644241300.index
2540673500.index
2824262330.index
353611394.index
2919135054.index
1526750554.index
1731119783.index
617630413.index
742624361.index
1017232147.index
4115713419.index
3061752563.index
2308727108.index
516796892.index
1970633780.index
2979946379.index
2205992640.index
4195036281.index
1197714393.index
1620745828.index
2542283468.index
698119997.index
494975520.index
3006707827.index
111259488.index
1621004019.index
1744605738.index
2091865062.index
2954219340.index
250000055.index
2655619306.index
1812997113.index
1816189790.index
3013177718.index
1180014752.index
858740933.index
619257111.index
3024840187.index
1375918551.index
3994941912.index
1589440475.index
3925246665.index
1005452304.index
2332945812.index
2044017285.index
2681849693.index
1821791166.index
34143661.index
3077532765.index
2298371255.index
415892283.index
85554329.index
3462026534.index
3978102282.index
418418141.index
2501319805.index
2342160164.index
3623120611.index
2677374542.index
3381777231.index
938789372.index
1362183947.index
951971502.index
509657048.index
3735855138.index
1959839927.index
311958037.index
499428121.index
329943587.index
3581307127.index
3624953663.index
2323507266.index
2622846091.index
3014771660.index
2729848531.index
870287766.index
2332638095.index
2981771096.index
4045235698.index
3380935777.index
2555201001.index
1652501558.index
398876058.index
2767399570.index
4151091204.index
3774428602.index
1667923852.index
968573074.index
3232022025.index
2577941461.index
1680706514.index
522182607.index
475865619.index
604350897.index
2380606104.index
754219233.index
393904933.index
809457042.index
3335393508.index
1048500002.index
3823209587.index
579263616.index
3867777275.index
2369488209.index
3099338240.index
1909850149.index
4183546186.index
450109778.index
2991296006.index
1260351544.index
2547253287.index
881671265.index
3435648363.index
3320709972.index
835403014.index
4024588953.index
173400706.index
3249972614.index
3209242997.index
1641485652.index
945879234.index
2381840394.index
901395204.index
2212165519.index
176903202.index
3978958928.index
820201470.index
462587362.index
2386653288.index
1141652659.index
13346074.index
774665886.index
3658110230.index
4252918188.index
4057171700.index
3689912349.index
388317711.index
1847991096.index
269695983.index
2721425949.index
3021406152.index
2801989636.index
4086426834.index
1998960988.index
2171568890.index
2192109058.index
2746881858.index
3671635276.index
2477685790.index
2572444779.index
3676681045.index
176750561.index
2640618525.index
4244894767.index
3440018712.index
2551501598.index
2146938681.index
4250310731.index
2320681256.index
822095730.index
920028410.index
3484309289.index
3566433761.index
3990481789.index
1224828983.index
1554850287.index
2862447423.index
2074897028.index
341798292.index
255472028.index
1817320599.index
346704677.index
2760167913.index
3551108601.index
3546221004.index
2317781087.index
2836110843.index
1649682248.index
1919773343.index
2100294181.index
301882973.index
1871150441.index
2105224455.index
67625901.index
2384963948.index
1828899052.index
80674142.index
789335738.index
3984099774.index
1306467251.index
2108140108.index
379242138.index
2595721293.index
1271964773.index
1304884566.index
1193323326.index
2816584895.index
4045177174.index
337753127.index
1742443438.index
876416392.index
1271572098.index
4073840255.index
604592420.index
4111957299.index
1519933098.index
2752564018.index
3570573857.index
411814726.index
3102503897.index
3281067604.index
2386312707.index
167935106.index
41978249.index
463371844.index
2643915370.index
2655930307.index
3743994308.index
1468951255.index
3609766392.index
554943285.index
3791123164.index
3850783026.index
3584344208.index
1823653419.index
2695835673.index
3367447718.index
771363442.index
4015773154.index
3978618696.index
2749380895.index
4268471038.index
339813119.index
3922812722.index
789261772.index
4005123563.index
1560768100.index
1092810473.index
1308185795.index
4025994707.index
1286446327.index
1956666373.index
4258924102.index
3951181022.index
2455979615.index
2184525766.index
3495993727.index
1782957290.index
3565050049.index
3865176160.index
1956544052.index
2814240090.index
816862680.index
1874181525.index
2828933291.index
11853210.index
2136135807.index
1564962462.index
687637344.index
2296006769.index
2923148365.index
1322682937.index
547222438.index
2850210700.index
4059778033.index
1907768691.index
3252239425.index
2161765539.index
732553029.index
3901017926.index
2230871682.index
4233515763.index
1293457754.index
3712891694.index
1651719256.index
4264688793.index
3262377748.index
3331108859.index
246970976.index
1939727078.index
3680651589.index
3969449030.index
3129685149.index
3595538645.index
3622555595.index
856982892.index
3283055157.index
2857614154.index
2763202149.index
779323023.index
814756841.index
1984854061.index
4026436284.index
2560795244.index
346663635.index
2544616550.index
3359620234.index
3111432160.index
3585990516.index
3820028374.index
3992239157.index
2208255988.index
3827536273.index
1276699859.index
2262141248.index
587784483.index
3679484378.index
3331569481.index
1305620877.index
3653611843.index
393974681.index
742367854.index
4149303547.index
1302744641.index
59873632.index
2143255850.index
3644039397.index
744271588.index
794685740.index
558704098.index
1483141321.index
8491138.index
3228918701.index
2681296146.index
2159418605.index
1986452015.index
585596486.index
2023103766.index
2778790981.index
2016077793.index
2167890787.index
3591242432.index
3414710321.index
3635106164.index
3172028948.index
2741006862.index
1702347411.index
494505476.index
1277325890.index
2367651663.index
1638227957.index
4111238862.index
315224009.index
818345940.index
1635631086.index
1781527116.index
3695804247.index
1550399885.index
4150373207.index
1367658488.index
1831930515.index
1647695646.index
375909935.index
206764496.index
3286756435.index
1781559124.index
4208967737.index
1824497524.index
4185019362.index
2847101581.index
1572554835.index
1777541587.index
4083959447.index
2059286018.index
4064964557.index
971146266.index
1237804896.index
2027160119.index
2192725421.index
2762304805.index
1690242603.index
957828634.index
670113128.index
1850546775.index
3580229282.index
724668170.index
1207725093.index
1714146862.index
3048989230.index
272363965.index
4064074806.index
3897899869.index
1105417262.index
3098014161.index
3885566106.index
585774136.index
2967933405.index
1473473726.index
1514322204.index
3228104457.index
3592530247.index
2834484045.index
807043905.index
3098276152.index
4069360636.index
2861593772.index
3724038392.index
3449207054.index
1653864039.index
3497305874.index
1064358870.index
1764116195.index
1936574190.index
2063185890.index
2444757180.index
3765572802.index
3590657749.index
2561214657.index
2778254827.index
3594069340.index
150133485.index
634637320.index
3764943829.index
3543950099.index
735495164.index
260317282.index
1526219711.index
1321682228.index
3220124430.index
4072312281.index
1404618366.index
167785107.index
3717545423.index
1109917545.index
2663742481.index
1094176754.index
3340100133.index
3202126464.index
2843573507.index
2576350170.index
2653360348.index
5361035.index
927053431.index
1771051206.index
486835802.index
56050971.index
1567616458.index
1720936765.index
55863599.index
696221663.index
3754897342.index
3456085587.index
631566419.index
4040420280.index
192104522.index
